<svg width="20" height="16" viewBox="0 0 20 16" fill="none" xmlns="http://www.w3.org/2000/svg">
<path d="M13.4678 1.18006C13.1953 0.898068 12.7418 0.898068 12.4598 1.18006C12.1874 1.45253 12.1874 1.90601 12.4598 2.17784L17.5707 7.28867H0.705621C0.31248 7.2893 0 7.60178 0 7.99493C0 8.38807 0.31248 8.71071 0.705621 8.71071H17.5707L12.4598 13.812C12.1874 14.094 12.1874 14.5481 12.4598 14.8199C12.7418 15.1019 13.1959 15.1019 13.4678 14.8199L19.7885 8.49921C20.0705 8.22674 20.0705 7.77327 19.7885 7.50143L13.4678 1.18006Z" fill="#122947"/>
</svg>
