<svg width="16" height="16" viewBox="0 0 16 16" fill="none" xmlns="http://www.w3.org/2000/svg">
<g clip-path="url(#clip0)">
<path d="M11.0206 10.4446C12.0434 9.33726 12.6816 7.85455 12.6816 6.22171C12.6816 2.79647 9.89447 0 6.45986 0C3.02526 0 0.238159 2.79647 0.238159 6.22171C0.238159 9.64694 3.02526 12.4434 6.45986 12.4434C7.85812 12.4434 9.14373 11.9836 10.1854 11.2047L14.8118 15.8311C14.9244 15.9437 15.0651 16 15.2059 16C15.3467 16 15.4968 15.9437 15.6 15.8311C15.8159 15.6152 15.8159 15.2587 15.6 15.0334L11.0206 10.4446ZM1.36426 6.22171C1.36426 3.41583 3.64461 1.1261 6.45986 1.1261C9.26574 1.1261 11.5555 3.40645 11.5555 6.22171C11.5555 9.03696 9.27512 11.3173 6.45986 11.3173C3.64461 11.3173 1.36426 9.02758 1.36426 6.22171Z" fill="#656565"/>
</g>
<defs>
<clipPath id="clip0">
<rect width="16" height="16" fill="white"/>
</clipPath>
</defs>
</svg>
