<svg width="14" height="14" viewBox="0 0 14 14" fill="none" xmlns="http://www.w3.org/2000/svg">
<path d="M13.7855 7.46496H0.214494C0.0960932 7.46496 0 7.36472 0 7.24121C0 7.1177 0.0960932 7.01746 0.214494 7.01746H13.7855C13.9039 7.01746 14 7.1177 14 7.24121C14 7.36472 13.9039 7.46496 13.7855 7.46496Z" fill="#122947"/>
<path d="M8.40723 13.075C8.35232 13.075 8.29741 13.0531 8.25537 13.0097C8.17171 12.9224 8.17171 12.7805 8.25537 12.6933L13.4821 7.24082L8.25537 1.79016C8.17171 1.7029 8.17171 1.56104 8.25537 1.47377C8.33902 1.38651 8.47501 1.38651 8.55866 1.47377L13.9369 7.0824C13.9772 7.12447 13.9995 7.1813 13.9995 7.24082C13.9995 7.30034 13.9768 7.35717 13.9369 7.39924L8.55866 13.0092C8.51705 13.0531 8.46214 13.075 8.40723 13.075Z" fill="#122947"/>
</svg>
